// Jest Snapshot v1, https://goo.gl/fbAQLP

exports[`Button render snapshot test Should Button with props matches snapshot 1`] = `
<DocumentFragment>
  <button
    class="btn"
  >
    Click me
  </button>
</DocumentFragment>
`;

exports[`Button render snapshot test Should Button without props matches snapshot 1`] = `
<DocumentFragment>
  <button
    class="btn"
  />
</DocumentFragment>
`;

exports[`Button render snapshot test Should button matches snapshot 1`] = `
<DocumentFragment>
  <button
    class="btn"
  />
</DocumentFragment>
`;
